DeviceName,deviceId,telemetryId,name,type,value,timestamp
PS3037-PS370000000,59c2d76ea894ed1461f0e573,59f2cc5ae0c2b6ae52c0b1d1,a_energy_sys_kvah,Float,733.0718,1509084250089
PS3037-PS370000000,59c2d76ea894ed1461f0e573,59f2cc5ae0c2b6ae52c0b1d1,voltage_ltol_avg_v,Float,480.31,1509084250089
PS3037-PS370000000,59c2d76ea894ed1461f0e573,59f2cc5ae0c2b6ae52c0b1d1,energy_sys_kwh,Float,488.7145,1509084250089
PS3037-PS370000000,59c2d76ea894ed1461f0e573,59f2cc5ae0c2b6ae52c0b1d1,r_energy_sys_kvarh,Float,325.8098,1509084250089
PS3037-PS370000000,59c2d76ea894ed1461f0e573,59f2cc5ae0c2b6ae52c0b1d1,a_power_sys_kva,Float,0.544,1509084250089
PS3037-PS370000000,59c2d76ea894ed1461f0e573,59f2cc5ae0c2b6ae52c0b1d1,current_avg_sys_a,Float,0.7556,1509084250089
PS3037-PS370000000,59c2d76ea894ed1461f0e573,59f2cc5ae0c2b6ae52c0b1d1,frequency_hz,Float,59.95,1509084250089
PS3037-PS370000000,59c2d76ea894ed1461f0e573,59f2cc5ae0c2b6ae52c0b1d1,r_power_sys_kvar,Float,0.2418,1509084250089
PS3037-PS370000000,59c2d76ea894ed1461f0e573,59f2cc5ae0c2b6ae52c0b1d1,voltage_lton_avg_v,Float,277.16,1509084250089
PS3037-PS370000000,59c2d76ea894ed1461f0e573,59f2cc5ae0c2b6ae52c0b1d1,power_sys_kw,Float,0.3627,1509084250089
